{
  "extends": "../tslint.json",
  "rules": {
    "directive-selector": [
      true,
      "attribute",
      "app",
      "camelCase"
    ],
    "component-selector": [
      true,
      "element",
      "app",
      "kebab-case"
    ],
    "curly": [
      true,
      "ignore-same-line"
    ],
    "trailing-comma": [
      true,
      {
        "multiline": "always",
        "singleline": "never"
      }
    ],
    "whitespace": [
      true,
      "check-branch",
      "check-decl",
      "check-separator",
      "check-type",
      "check-typecast"
    ],
  }
}